INDEX VERSION 1.131+C:\Users\Nahasu\CarpetaTrabajoInicial\cursojava2021\WorkspaceSpring\.metadata\.plugins\org.eclipse.jdt.core
843252521.index
882870101.index
741965935.index
4054387504.index
1157532782.index
3531269325.index
1718767919.index
542586150.index
1967032303.index
1450893214.index
3582401327.index
1274084181.index
394636026.index
3113933816.index
2958438016.index
237130916.index
2923604987.index
3302566598.index
3768040530.index
264221874.index
810350196.index
217062422.index
4101689444.index
3481540909.index
4282804524.index
987015671.index
2162371686.index
2707085857.index
112309503.index
3455486261.index
1600188546.index
3712072481.index
3155639320.index
2267018471.index
328264386.index
3549318906.index
1124779847.index
2079367591.index
1973177290.index
410250422.index
233782558.index
4071678523.index
1969880349.index
728615510.index
3431308935.index
1443140273.index
4048575231.index
1012787799.index
34543085.index
1213390334.index
1637943798.index
3776996503.index
2559376819.index
1577738597.index
3413626861.index
3788117909.index
1619467891.index
3854901207.index
3919584844.index
4094573900.index
2650610508.index
3459583023.index
1720600079.index
818171475.index
1568069347.index
4035784498.index
4252213842.index
4282205406.index
2851655450.index
3708881623.index
2509210843.index
452867279.index
47329991.index
3854228793.index
875501125.index
2802036847.index
1610103105.index
2523076984.index
2180340457.index
2262695565.index
1281910751.index
1263543404.index
4015411212.index
1893032434.index
1221472604.index
1435466407.index
1469499864.index
1395548569.index
1698968665.index
2712255642.index
945131399.index
1789327903.index
1847214540.index
3076598785.index
1781718502.index
3433450562.index
839544454.index
3567471890.index
3435281201.index
84656600.index
3434858180.index
3414768160.index
1896609177.index
1364673254.index
1609827689.index
2862337704.index
743485910.index
996304721.index
4093687117.index
1609123020.index
1184800617.index
1094720021.index
1267403947.index
1865797976.index
337740696.index
2097918725.index
298713324.index
1576729000.index
4162543239.index
3923161119.index
202035541.index
1130371475.index
3243865415.index
3194042931.index
2646174316.index
